XGBoost with parameter tuning
…
Please return to the 5.2 Tabs menu to select other (groups of) variables

5.2.8 Basement()

11Basement

BasementCols = all %>%
    select(starts_with("Bs"), TotalBsmtSF)
BasementCols

## # A tibble: 2,919 x 11
##    BsmtQual BsmtCond BsmtExposure BsmtFinType1 BsmtFinSF1 BsmtFinType2
##    <chr>    <chr>    <chr>        <chr>             <int> <chr>       
##  1 Gd       TA       No           GLQ                 706 Unf         
##  2 Gd       TA       Gd           ALQ                 978 Unf         
##  3 Gd       TA       Mn           GLQ                 486 Unf         
##  4 TA       Gd       No           ALQ                 216 Unf         
##  5 Gd       TA       Av           GLQ                 655 Unf         
##  6 Gd       TA       No           GLQ                 732 Unf         
##  7 Ex       TA       Av           GLQ                1369 Unf         
##  8 Gd       TA       Mn           ALQ                 859 BLQ         
##  9 TA       TA       No           Unf                   0 Unf         
## 10 TA       TA       No           GLQ                 851 Unf         
## # ... with 2,909 more rows, and 5 more variables: BsmtFinSF2 <int>,
## #   BsmtUnfSF <int>, BsmtFullBath <int>, BsmtHalfBath <int>,
## #   TotalBsmtSF <int>
…
cor(all$GrLivArea, (all$`1stFlrSF` + all$`2ndFlrSF` + all$LowQualFinSF))

## [1] 1

all %>%
    filter(LowQualFinSF > 0) %>%
    select(GrLivArea, `1stFlrSF`, `2ndFlrSF`, LowQualFinSF)

## # A tibble: 40 x 4
##    GrLivArea `1stFlrSF` `2ndFlrSF` LowQualFinSF
##        <int>      <int>      <int>        <int>
##  1      1176        816          0          360
##  2      1526       1013          0          513
##  3       754        520          0          234
##  4      1382        854          0          528
##  5      3608       1518       1518          572
##  6      1656        808        704          144
##  7      3112       1360       1360          392
##  8      2229        929        929          371
##  9      1316        926          0          390
## 10      2192       1052        720          420
## # ... with 30 more rows
…
